{
  "facts":[{
    "text":"Each year, 39 million cattle and calves are killed for food in the U.S.",
    "tags":["animals", "dairy"],
    "sources":[{
      "title":"",
      "publication":"",
      "url":""
    }]
  },{
    "text":"25% of humans in the US and 75% of humans in the world are lactose intolerant",
    "tags":["animals", "health", "dairy"],
    "sources":[{
      "title":"",
      "publication":"",
      "url":""
    }]
  },{
    "text":"46% of plastic in the ocean is from abandoned fishing nets, 0.03% is from plastic straws",
    "tags":["animals", "ocean"],
    "sources":[{
      "title":"Evidence that the Great Pacific Garbage Patch is rapidly accumulating plastic",
      "publication":"Scientific Reports",
      "url":"https://www.nature.com/articles/s41598-018-22939-w"
    },{
      "title":"The Great Pacific Garbage Patch Isn’t What You Think it Is",
      "publication":"National Geographic",
      "url":"https://www.nationalgeographic.com/news/2018/03/great-pacific-garbage-patch-plastics-environment/S"
    },{
      "title":"Plastic Straws Aren’t the Problem",
      "publication":"Bloomberg",
      "url":"https://www.bloomberg.com/opinion/articles/2018-06-07/plastic-straws-aren-t-the-problem"
    }]
  },{
    "text":"Microplastics in different forms are present in almost all water systems in the world, including streams, rivers, lakes, or oceans.",
    "tags":["environment", "ocean", "plastic"],
    "sources":[{
      "title":"Accumulation of Microplastic on Shorelines Woldwide: Sources and Sinks",
      "publication":"Environmental Science & Technology",
      "url":"https://pubs.acs.org/doi/full/10.1021/es201811s"
    },{
      "title":"Inside the lonely fight against the biggest environmental problem you've never heard of ",
      "publication":"The Guardian",
      "url":"https://www.theguardian.com/sustainable-business/2014/oct/27/toxic-plastic-synthetic-microscopic-oceans-microbeads-microfibers-food-chain"
    },{
      "title":"Freshwater's Macro Microplastic Problem",
      "publication":"PBS NOVA",
      "url":"https://www.pbs.org/wgbh/nova/article/freshwater-microplastics/"
    }]
  },{
    "text":"83% of tap water samples from major metropolitan areas around the world were contaminated with plastic fibers",
    "tags":["environment", "plastic", "health"],
    "sources":[{
      "title":"Invisibles - The Plastic Inside Us",
      "publication":"Orb Media",
      "url":"https://orbmedia.org/stories/Invisibles_plastics/"
    }]
  },{
    "text":"Cigarette smoking kills more than 480,000 Americans each year.",
    "tags":["health", "cigarettes"],
    "sources":[{
      "title":"2014 Surgeon General's Report: The Health Consequences of Smoking—50 Years of Progress",
      "publication":"Centers for Disease Control and Prevention",
      "url":"https://www.cdc.gov/tobacco/data_statistics/sgr/50th-anniversary/index.htm"
    }]
  },{
    "text":"In the United States, smoking-related illness costs more than $300 billion a year, including $170 billion in direct medical care and $156 billion in lost productivity",
    "tags":["health", "cigarettes"],
    "sources":[{
      "title":"2014 Surgeon General's Report: The Health Consequences of Smoking—50 Years of Progress",
      "publication":"Centers for Disease Control and Prevention",
      "url":"https://www.cdc.gov/tobacco/data_statistics/sgr/50th-anniversary/index.htm"
    },{
      "title":"Annual Healthcare Spending Attributable to Cigarette Smoking",
      "publication":"U.S. National Institutes of Health",
      "url":"https://www.ncbi.nlm.nih.gov/pmc/articles/PMC4603661/"
    }]
  },{
    "text":"Cigarette butts are the most common form of litter on the planet, 4.5 trillion are littered each year",
    "tags":["environment", "cigarettes"],
    "sources":[{
      "title":"Cigarette butts have adverse effects on initial growth of perennial ryegrass (gramineae: Lolium perenne L.) and white clover (leguminosae: Trifolium repens L.)",
      "publication":"Ecotoxicology and Environmental Safety",
      "url":"https://www.sciencedirect.com/science/article/pii/S0147651319307481"
    }]
  },{
    "text":"Discarded cigarette butts severely impact plant growth. The presence of cigarette butts reduced root biomass by 57%; germination success by 27%; and shoot length by 28%.",
    "tags":["environment", "cigarettes"],
    "sources":[{
      "title":"Cigarette butts have adverse effects on initial growth of perennial ryegrass (gramineae: Lolium perenne L.) and white clover (leguminosae: Trifolium repens L.)",
      "publication":"Ecotoxicology and Environmental Safety",
      "url":"https://www.sciencedirect.com/science/article/pii/S0147651319307481"
    }]
  },{
    "text":"Each year, more than 1 billion animals are killed for their fur worldwide, including rabbits, mink, foxes, coyotes, chinchillas, rabbits, seals, dogs, and cats.",
    "tags":["animals", "fur"],
    "sources":[]
  },{
    "text":"Roughly 85% of animals killed for fur are raised on fur factory farms, with the remaining 15% trapped in the wild.",
    "tags":["animals", "fur"],
    "sources":[]
  },{
    "text":"Animals killed on fur farms spend their entire lives in cramped cages. These species are wild, with territorial ranges in the hundreds of acres. The confinement and boredom often leads to cage psychosis - frantic pacing, self-mutilation, and cannibalism.",
    "tags":["animals", "fur"],
    "sources":[]
  },{
    "text":"Animals trapped in the wild are often stuck in traps for days, exposed to the elements, injured and bleeding, and without food or water. Traps are indiscriminate, sometimes killing companion animals and endangered species.",
    "tags":["animals", "fur"],
    "sources":[]
  },{
    "text":"Common methods of killing animals on fur farms include anal electrocution, gassing, suffocation, and neck-breaking",
    "tags":["animals", "fur"],
    "sources":[]
  },{
    "text":"Animals caught in traps are usually killed by shooting or bludgeoning.",
    "tags":["animals", "fur"],
    "sources":[]
  },{
    "text":"Much of the fur in the US is imported from China and other countries with little to no regulation.",
    "tags":["animals", "fur"],
    "sources":[]
  },{
    "text":"Fur farming is banned in many European countries including the UK, Germany, Belgium, Norway, Austria, The Czech Republic, Slovenia, and Serbia.",
    "tags":["animals", "fur"],
    "sources":[{
      "title":"A Guide to the Fur-Free Revolution: These Places Have Banned Fur",
      "publication":"Peta",
      "url":"https://www.peta.org/features/fur-bans-fur-free-future/"
    }]
  },{
    "text":"The sale and manufacture of fur is banned in several US cities including Los Angeles, San Francisco, Berkeley, and West Hollywood.",
    "tags":["animals", "fur"],
    "sources":[]
  },{
    "text":"The US mink industry alone adds almost 1,000 tons of nitrogen and phosphorus into the environment each year. Fur is processed with harmful carcinogenic chemicals, including chromium and formaldehyde.",
    "tags":["animals", "fur"],
    "sources":[{
      "title":"The Use of Phytase as a Feed Supplement to Enhance Utilization and Reduce Excretion of Phosphorus in Mink",
      "publication":"Fur Rancher Blue Book of Fur Farming",
      "url":""
    }]
  },{
    "text":"80% of agricultural land in the US is used to raise animals for food.",
    "tags":["animals"],
    "sources":[{
      "title":"Major Uses of Land in the United States, 1997",
      "publication":"U.S. Department of Agriculture",
      "url":"https://www.ers.usda.gov/webdocs/publications/47144/13203_sb973_1_.pdf?v=41056"
    }]
  },{
    "text":"An area of land the size of seven football fields is bulldozed every minute to create room for farmed animals and the crops that feed them.",
    "tags":["animals"],
    "sources":[{
      "title":"Smithsonian Researchers Show Amazonian Deforestation Accelerating",
      "publication":"Smithsonian Institution",
      "url":"https://www.sciencedaily.com/releases/2002/01/020115075118.htm"
    }]
  },{
    "text":"In 1812, the global human population was 1 billion. In 1912, it was 1.5 billion. In 2012, it was 7 billion.",
    "tags":["environment"],
    "sources":[{
      "title":"",
      "publication":"",
      "url":""
    }]
  },{
    "text":"Humans and farmed mammals represent 96% of the mammal biomass on earth. Farmed birds represent 70% of the world's bird biomass.",
    "tags":["animals", "environment"],
    "sources":[{
      "title":"The biomass distribution on Earth",
      "publication":"National Academy of Sciences of The United States of America",
      "url":"https://www.pnas.org/content/115/25/6506"
    },{
      "title":"Humans and Big Ag Livestock Now Account for 96 Percent of Mammal Biomass.",
      "publication":"EcoWatch",
      "url":"https://www.ecowatch.com/biomass-humans-animals-2571413930.html"
    }]
  },{
    "text":"The US government spends more than $550 million every year to pursuade Americans to purchase meat and other animal products",
    "tags":["animals"],
    "sources":[{
      "title":"Meatonomics",
      "publication":"",
      "url":"https://meatonomics.com/2013/09/28/10-things-i-wish-all-americans-knew-about-the-meat-dairy-industries/"
    }]
  },{
    "text":"Half of the corals in the Great Barrier Reef died between 2016 and 2018",
    "tags":["environment", "ocean"],
    "sources":[{
      "title":"Spatial and temporal patterns of mass bleaching of corals in the Anthropocene",
      "publication":"Science",
      "url":"https://science.sciencemag.org/content/359/6371/80"
    },{
      "title":"Since 2016, Half of All Coral in the Great Barrier Reef Has Died",
      "publication":"The Atlantic",
      "url":"https://www.theatlantic.com/science/archive/2018/04/since-2016-half-the-coral-in-the-great-barrier-reef-has-perished/558302/"
    }]
  },{
    "text":"29% of fish and seafood species eaten by humans have declined by 90%",
    "tags":["environment", "ocean"],
    "sources":[{
      "title":"Salt-Water Fish Extinction Seen By 2048",
      "publication":"CBS News",
      "url":"https://www.cbsnews.com/news/salt-water-fish-extinction-seen-by-2048/"
    }]
  },{
    "text":"75 percent of the world’s fisheries are either exploited or depleted due to fishing.",
    "tags":["environment", "ocean"],
    "sources":[{
      "title":"General situation of world fish stocks",
      "publication":"United Nations Food and Agriculture Organization",
      "url":"http://www.fao.org/newsroom/common/ecg/1000505/en/stocks.pdf"
    }]
  },{
    "text":"37% of fish caught worldwide are used as animal feed.",
    "tags":["environment", "ocean", "animals"],
    "sources":[{
      "title":"One-third of world fish catch used for animal feed",
      "publication":"Reuters",
      "url":"https://www.reuters.com/article/us-fish-food/one-third-of-world-fish-catch-used-for-animal-feed-idUSTRE49S0XH20081029"
    }]
  },{
    "text":"From 1970 to 2014, the size of vertebrate populations has declined by 60 percent on average.",
    "tags":["environment"],
    "sources":[{
      "title":"Living Planet Report 2018",
      "publication":"World Wildlife Fund",
      "url":"https://www.worldwildlife.org/pages/living-planet-report-2018"
    },{
      "title":"Wait, Have We Really Wiped Out 60 Percent of Animals?",
      "publication":"The Atlantic",
      "url":"https://www.theatlantic.com/science/archive/2018/10/have-we-really-killed-60-percent-animals-1970/574549/"
    }]
  },{
    "text": "Processed meat is carcinogenic, red meat is probably carcinogenic.",
    "extended":"In 2015, the World Health Organization's International Agency for Research on Cancer classified processed meats as carcinogenic and red meat as probably carcinogenic. 22 experts from 10 countries reviewed more than 800 studies. The WHO defined 'red meat' as any mammalian muscle meat (beef, veal, venison, pork), and 'processed meat' as meat that has been transformed through salting, curing, smoking, etc (sausages, jerky, bacon, hot dogs).",
    "tags": ["animals", "health"],
    "sources":[{
      "title":"Q&A on the carcinogenicity of the consumption of red meat and processed meat",
      "publication":"World Health Organization",
      "url":"https://www.who.int/features/qa/cancer-red-meat/en/"
    },{
      "title":"Carcinogenicity of consumption of red meat and processed meat: A review of scientific news since the IARC decision.",
      "publication":"National Institutes of Health",
      "url":"https://www.ncbi.nlm.nih.gov/pubmed/28450127"
    },{
      "title":"Carcinogenicity of consumption of red and processed meat",
      "publication":"The Lancet",
      "url":"https://www.thelancet.com/journals/lanonc/article/PIIS1470-2045(15)00444-1/fulltext"
    }]
  },{
    "text":"In the US, right-wing groups have been responsible for 12 times as many fatalities and 36 times as many injuries as left-wing groups.",
    "extended":"\"White nationalists; militia movements; anti-Muslim attackers; I.R.S. building and abortion clinic bombers; and other right-wing groups were responsible for 12 times as many fatalities and 36 times as many injuries as communists; socialists; animal rights and environmental activists; anti-white- and Black Lives Matter-inspired attackers; and other left-wing groups.\n\nOf the nearly 1,500 individuals in a University of Maryland study of radicalization from 1948 to 2013, 43 percent espoused far-right ideologies, compared to 21 percent for the far left. Far-right individuals were more likely to commit violence against people, while those on the far left were more likely to commit property damage.\"",
    "tags":["politics", "crime"],
    "sources":[{
      "title":"Trump Asks, 'What About the Alt-Left?' Here's an Answer",
      "publication":"The New York Times",
      "url":"http://web.archive.org/web/20190622224956/https://www.nytimes.com/2017/08/15/us/politics/trump-alt-left-fact-check.html"
    }]
  },{
    "text":"Between the start of his presidency on December 19, 2016 to April 29, 2019, Trump made more than 10,000 false or misleading claims.",
    "extended":"",
    "tags":["politics"],
    "sources":[{
      "title":"President Trump has made more than 10,000 false or misleading claims",
      "publication":"The Washington Post",
      "url":"https://www.washingtonpost.com/politics/2019/04/29/president-trump-has-made-more-than-false-or-misleading-claims/?utm_term=.7ff1f7b9ce85"
    }]
  },{
    "text":"In the United States in 2017, males constituted 73.8% of those arrested for crimes, 80.4% of those arrested for violent crime, 88.2% of those arrested for homicide, and 98.8% of those arrested for rape.",
    "tags":["gender", "crime"],
    "sources":[{
      "title":"Crime in the United States 2012",
      "publication":"Federal Bureau of Investigations",
      "url":"https://ucr.fbi.gov/crime-in-the-u.s/2012/crime-in-the-u.s.-2012/tables/42tabledatadecoverviewpdf"
    }]
  },{
    "text":"In the United States in 2017, males constituted 77.9% of deaths by suicide, the highest rate is among middle-aged white males.",
    "tags":["gender", "suicide"],
    "sources":[{
      "title":"Suicide Statistics",
      "publication":"American Foundation for Suicide Prevention",
      "url":"https://afsp.org/about-suicide/suicide-statistics/"
    }]
  },{
    "text":"In the United States in 2017, there were more than twice as many suicides (47,173) as there were homicides (19,510).",
    "tags":["suicide"],
    "sources":[{
      "title":"Suicide",
      "publication":"National Institute of Mental Health",
      "url":"https://www.nimh.nih.gov/health/statistics/suicide.shtml"
    }]
  },{
    "text":"At least 4 mass murders, resulting in 45 deaths, have been committed in North America by men who have either self-identified as incels or who had mentioned incel-related names and writings in their private writings or internet postings.",
    "tags":["gender", "crime"],
    "sources":[{
      "title":"On Social Media's Fringes, Growing Extremism Targets Women",
      "publication":"The New York Times",
      "url":"https://www.nytimes.com/2018/05/09/world/americas/incels-toronto-attack.html"
    }]
  },{
    "text":"1 in 10 girls are sexually assaulted by the age of 20",
    "tags":["gender", "crime"],
    "sources":[{
      "title":"One in 10 girls sexually abused, says UN report",
      "publication":"BBC",
      "url":"https://www.bbc.com/news/world-29071073"
    }]
  },{
    "text":"People in the US spend twice as much on healthcare as other developed countries.",
    "tags":["health"],
    "sources":[{
      "title":"Health spending",
      "publication":"OECD",
      "url":"https://data.oecd.org/healthres/health-spending.htm"
    }]
  },{
    "text":"The US has a greater percentage of its population in prison that any other industrialized country",
    "tags":["politics"],
    "sources":[{
      "title":"",
      "publication":"",
      "url":""
    }]
  },{
    "text":"The US spends more on its military than the next 38 countries combined",
    "tags":["politics"],
    "sources":[{
      "title":"",
      "publication":"",
      "url":""
    }]
  }]
}